<svg id="headset" xmlns="http://www.w3.org/2000/svg" width="15.917" height="15.917" viewBox="0 0 15.917 15.917">
  <g id="Group_4847" data-name="Group 4847">
    <g id="Group_4846" data-name="Group 4846">
      <path id="Path_1916" data-name="Path 1916" d="M3.73,6.311H2.5a5.472,5.472,0,0,1,10.59-1.494.622.622,0,0,0,1.166-.431A6.715,6.715,0,0,0,1.244,6.645,2.488,2.488,0,0,0,0,8.8v2.114A2.49,2.49,0,0,0,2.487,13.4H3.73a.622.622,0,0,0,.622-.622V6.932A.622.622,0,0,0,3.73,6.311Zm-.622,5.844H2.487a1.245,1.245,0,0,1-1.243-1.243V8.8A1.245,1.245,0,0,1,2.487,7.554h.622Z" fill="#0066c0"/>
      <path id="Path_1917" data-name="Path 1917" d="M222.715,203h-1.243a.622.622,0,0,0-.622.622v6.5a.622.622,0,0,1-.622.622h-1.9v.02a1.244,1.244,0,1,0,0,1.2v.02h1.9a1.867,1.867,0,0,0,1.865-1.865v-.031h.622A2.49,2.49,0,0,0,225.2,207.6v-2.114A2.49,2.49,0,0,0,222.715,203Zm1.243,4.6a1.245,1.245,0,0,1-1.243,1.243h-.622v-4.6h.622a1.245,1.245,0,0,1,1.243,1.243Z" transform="translate(-209.285 -196.689)" fill="#0066c0"/>
    </g>
  </g>
</svg>
