<svg id="Group_4829" data-name="Group 4829" xmlns="http://www.w3.org/2000/svg" width="13" height="1.7" viewBox="0 0 13 1.7">
  <g id="Group_4387" data-name="Group 4387">
    <path id="Path_1138" data-name="Path 1138" d="M74.866,117.766H63.606a.85.85,0,1,0,0,1.7h11.26a.85.85,0,1,0,0-1.7Z" transform="translate(-62.736 -117.766)" fill="#3e3e3e"/>
  </g>
</svg>
