<svg xmlns="http://www.w3.org/2000/svg" width="30.75" height="20.4" viewBox="0 0 30.75 20.4">
  <g id="Group_4856" data-name="Group 4856" transform="translate(-789.25 -626.201)">
    <path id="Path_1932" data-name="Path 1932" d="M106,5.2H81.25a3.06,3.06,0,0,0-3,3.05v14.3a3,3,0,0,0,3,3.05H106a3,3,0,0,0,3-3.05V8.25a3.06,3.06,0,0,0-3-3.05Zm2.15,17.35A2.15,2.15,0,0,1,106,24.7H81.25a2.15,2.15,0,0,1-2.15-2.15V13.9h29Zm0-9.55h-29V10h29Zm0-3.9h-29V8.25a2.15,2.15,0,0,1,2.1-2.15H106a2.15,2.15,0,0,1,2.15,2.15Z" transform="translate(711 621.001)" fill="#00072d"/>
    <path id="Path_1933" data-name="Path 1933" d="M90.8,18.65a.45.45,0,0,1-.45.45h-7.8a.45.45,0,0,1,0-.9h7.8A.45.45,0,0,1,90.8,18.65Z" transform="translate(711 621.001)" fill="#00072d"/>
    <path id="Path_1934" data-name="Path 1934" d="M90.8,21.25a.45.45,0,0,1-.45.45h-7.8a.45.45,0,0,1,0-.9h7.8A.45.45,0,0,1,90.8,21.25Z" transform="translate(711 621.001)" fill="#00072d"/>
  </g>
</svg>
