<svg id="Group_4863" data-name="Group 4863" xmlns="http://www.w3.org/2000/svg" width="44" height="25" viewBox="0 0 44 25">
  <g id="Group_4862" data-name="Group 4862">
    <path id="Path_1935" data-name="Path 1935" d="M18.24,16.55l1.43-8.06h2.24l-1.39,8.06Z" fill="#3c58bf"/>
    <path id="Path_1936" data-name="Path 1936" d="M18.24,16.55l1.83-8.06h1.84l-1.39,8.06Z" fill="#293688"/>
    <path id="Path_1937" data-name="Path 1937" d="M28.63,8.58a5.65,5.65,0,0,0-2.06-.36c-2.24,0-3.85,1.12-3.85,2.73,0,1.21,1.12,1.84,2,2.24s1.17.68,1.17,1c0,.54-.72.81-1.35.81a4.79,4.79,0,0,1-2.15-.45l-.31-.13-.31,1.84a7.33,7.33,0,0,0,2.55.44c2.37,0,3.94-1.12,3.94-2.82,0-.94-.58-1.66-1.92-2.24-.81-.4-1.3-.63-1.3-1s.4-.72,1.3-.72a4.1,4.1,0,0,1,1.7.32l.22.09.36-1.75Z" fill="#3c58bf"/>
    <path id="Path_1938" data-name="Path 1938" d="M28.63,8.58a5.65,5.65,0,0,0-2.06-.36c-2.24,0-3.45,1.12-3.45,2.73a2.34,2.34,0,0,0,1.61,2.24c.9.41,1.17.68,1.17,1,0,.54-.72.81-1.35.81a4.79,4.79,0,0,1-2.15-.45l-.31-.13-.31,1.84a7.33,7.33,0,0,0,2.55.44c2.37,0,3.94-1.12,3.94-2.82,0-.94-.58-1.66-1.92-2.24-.81-.4-1.3-.63-1.3-1s.4-.72,1.3-.72a4.1,4.1,0,0,1,1.7.32l.22.09.36-1.75Z" fill="#293688"/>
    <path id="Path_1939" data-name="Path 1939" d="M32.48,8.49c-.53,0-.94,0-1.16.58L28,16.55h2.42l.45-1.34h2.86L34,16.55h2.15L34.23,8.49Zm-1,5.38c.14-.41.9-2.38.9-2.38s.18-.49.31-.8l.14.76s.44,2,.53,2.46H31.45Z" fill="#3c58bf"/>
    <path id="Path_1940" data-name="Path 1940" d="M33,8.49c-.54,0-.94,0-1.16.58L28,16.55h2.42l.45-1.34h2.86L34,16.55h2.15L34.23,8.49Zm-1.57,5.38c.18-.45.9-2.38.9-2.38s.18-.49.31-.8l.14.76s.44,2,.53,2.46H31.45Z" fill="#293688"/>
    <path id="Path_1941" data-name="Path 1941" d="M14.12,14.14,13.89,13a6.51,6.51,0,0,0-3.13-3.54l2,7.17h2.42l3.63-8.06H16.4Z" fill="#3c58bf"/>
    <path id="Path_1942" data-name="Path 1942" d="M14.12,14.14,13.89,13a6.51,6.51,0,0,0-3.13-3.54l2,7.17h2.42l3.63-8.06h-2Z" fill="#293688"/>
    <path id="Path_1943" data-name="Path 1943" d="M7.89,8.49l.4.09A7.53,7.53,0,0,1,13.89,13l-.8-3.81a.9.9,0,0,0-1-.67Z" fill="#ffbc00"/>
    <path id="Path_1944" data-name="Path 1944" d="M7.89,8.49h0c2.87.67,5.24,2.42,6,4.44l-.76-3.19a1.1,1.1,0,0,0-1.08-.85Z" fill="#f7981d"/>
    <path id="Path_1945" data-name="Path 1945" d="M7.89,8.49h0c2.87.67,5.24,2.42,6,4.44l-.54-1.75a1.56,1.56,0,0,0-.94-1.3Z" fill="#ed7c00"/>
    <path id="Path_1946" data-name="Path 1946" d="M16.36,13.87l-1.53-1.53-.71,1.71-.18-1.12A6.5,6.5,0,0,0,10.8,9.39l2,7.16h2.42Z" fill="#051244"/>
    <path id="Path_1947" data-name="Path 1947" d="M20.52,16.55l-1.93-1.97-.35,1.97Z" fill="#051244"/>
    <path id="Path_1948" data-name="Path 1948" d="M25.67,13.78h0c.18.18.27.31.23.49,0,.54-.72.81-1.35.81a4.93,4.93,0,0,1-2.15-.45l-.31-.14-.31,1.84a7.29,7.29,0,0,0,2.55.45,4.47,4.47,0,0,0,3.27-1.12Z" fill="#051244"/>
    <path id="Path_1949" data-name="Path 1949" d="M28.27,16.55h2.11l.45-1.34h2.86L34,16.55h2.15l-.76-3.27L32.7,10.69l.14.71s.44,2,.53,2.47H31.45c.18-.45.9-2.38.9-2.38s.18-.49.31-.8" fill="#051244"/>
    <rect id="Rectangle_1077" data-name="Rectangle 1077" width="43" height="24" rx="1.62" transform="translate(0.5 0.5)" fill="none" stroke="#c1c1c1" stroke-miterlimit="10" stroke-width="1"/>
  </g>
</svg>
