<svg xmlns="http://www.w3.org/2000/svg" width="16.908" height="16.908" viewBox="0 0 16.908 16.908">
  <path id="Path_1935" data-name="Path 1935" d="M124.537,108.93l-7.153,7.153-7.154-7.153-1.3,1.3,7.153,7.154-7.153,7.154,1.3,1.3,7.154-7.153,7.153,7.153,1.3-1.3-7.153-7.154,7.153-7.154Zm0,0" transform="translate(-108.93 -108.93)" fill="#1a1a1a"/>
</svg>
